{
  "main": {
    "id": "a951f74d9ebd8ecc",
    "type": "split",
    "children": [
      {
        "id": "49698f5b1424d1fe",
        "type": "tabs",
        "children": [
          {
            "id": "a7a65236db54031a",
            "type": "leaf",
            "state": {
              "type": "markdown",
              "state": {
                "file": "Projects/Wolfsbane/Wolfsbane.md",
                "mode": "source",
                "source": false
              }
            }
          }
        ]
      }
    ],
    "direction": "vertical"
  },
  "left": {
    "id": "4a2477c4f382260e",
    "type": "split",
    "children": [
      {
        "id": "371f4e53d30d629c",
        "type": "tabs",
        "children": [
          {
            "id": "1db756152b6bf961",
            "type": "leaf",
            "state": {
              "type": "file-explorer",
              "state": {
                "sortOrder": "alphabetical"
              }
            }
          },
          {
            "id": "cd55bbe6774c35ce",
            "type": "leaf",
            "state": {
              "type": "search",
              "state": {
                "query": "",
                "matchingCase": false,
                "explainSearch": false,
                "collapseAll": false,
                "extraContext": false,
                "sortOrder": "alphabetical"
              }
            }
          },
          {
            "id": "e8ea886c5e9ff328",
            "type": "leaf",
            "state": {
              "type": "bookmarks",
              "state": {}
            }
          }
        ]
      }
    ],
    "direction": "horizontal",
    "width": 300
  },
  "right": {
    "id": "0cfc065cfb7afe78",
    "type": "split",
    "children": [
      {
        "id": "a8b3da55dcacf2f8",
        "type": "tabs",
        "children": [
          {
            "id": "07b3b690edc16966",
            "type": "leaf",
            "state": {
              "type": "backlink",
              "state": {
                "file": "Projects/Wolfsbane/Wolfsbane.md",
                "collapseAll": false,
                "extraContext": false,
                "sortOrder": "alphabetical",
                "showSearch": false,
                "searchQuery": "",
                "backlinkCollapsed": false,
                "unlinkedCollapsed": true
              }
            }
          },
          {
            "id": "928ee082f8507d08",
            "type": "leaf",
            "state": {
              "type": "outgoing-link",
              "state": {
                "file": "Projects/Wolfsbane/Wolfsbane.md",
                "linksCollapsed": false,
                "unlinkedCollapsed": true
              }
            }
          },
          {
            "id": "ed23320f475a9d89",
            "type": "leaf",
            "state": {
              "type": "tag",
              "state": {
                "sortOrder": "frequency",
                "useHierarchy": true
              }
            }
          },
          {
            "id": "16fb3251ba73d700",
            "type": "leaf",
            "state": {
              "type": "outline",
              "state": {
                "file": "Projects/Wolfsbane/Wolfsbane.md"
              }
            }
          }
        ]
      }
    ],
    "direction": "horizontal",
    "width": 300,
    "collapsed": true
  },
  "left-ribbon": {
    "hiddenItems": {
      "switcher:Open quick switcher": false,
      "graph:Open graph view": false,
      "canvas:Create new canvas": false,
      "daily-notes:Open today's daily note": false,
      "templates:Insert template": false,
      "command-palette:Open command palette": false
    }
  },
  "active": "a7a65236db54031a",
  "lastOpenFiles": [
    "Projects/Rite of Passage/Rite of Passage.md",
    "Projects/Dirk Woodchip/Dirk Woodchip.md",
    "Projects/Wolfsbane/Wolfsbane.md",
    "Implementation/Unity.md",
    "Projects/Dirk Woodchip",
    "Projects/Rite of Passage",
    "Projects/Wolfsbane",
    "Projects",
    "index.md",
    "images/logo.png",
    "Home.md",
    "Index.md",
    "Implementation"
  ]
}